[
    {
        "ID": "sshd",
        "Name": "/usr/sbin/sshd",
        "Args": [
            "-D"
        ]
    },
    {
        "ID": "nginx",
        "Name": "/usr/sbin/nginx",
        "Args": [
            "-g",
            "daemon off;"
        ]
    },
    {
        "ID": "code-server",
        "Name": "gosu",
        "Args": [
            "dev",
            "/opt/code-server/bin/code-server"
        ]
    },
    {
        "ID": "v2ray-web",
        "Name": "/opt/v2ray-web/v2ray-web",
        "Args": [
            "web",
            "--no-upgrade"
        ],
        "Dir": "/opt/v2ray-web"
    },
    {
        "ID": "coredns",
        "Name": "gosu",
        "Args": [
            "coredns",
            "/opt/coredns/coredns",
            "-conf",
            "/opt/coredns/Corefile"
        ],
        "Dir": "/opt/coredns"
    }
]